// Jest Snapshot v1, https://goo.gl/fbAQLP

exports[`ChatListItem renders correctly 1`] = `
ShallowWrapper {
  "length": 1,
  Symbol(enzyme.__root__): [Circular],
  Symbol(enzyme.__unrendered__): <ChatListItem
    buddy={
      Object {
        "displayName": "J. Anteri",
        "id": "qwer",
      }
    }
    goToConversation={[MockFunction]}
    yellowDot={true}
  />,
  Symbol(enzyme.__renderer__): Object {
    "batchedUpdates": [Function],
    "getNode": [Function],
    "render": [Function],
    "simulateEvent": [Function],
    "unmount": [Function],
  },
  Symbol(enzyme.__node__): Object {
    "instance": null,
    "key": undefined,
    "nodeType": "class",
    "props": Object {
      "activeOpacity": 0.2,
      "children": <Component
        style={
          Object {
            "alignItems": "center",
            "borderBottomColor": "#E6E7E8",
            "borderBottomWidth": 1,
            "flexDirection": "row",
            "height": 90,
            "justifyContent": "space-between",
          }
        }
      >
        <Image
          source={
            Object {
              "testUri": "../../../src/images/female_icon.png",
            }
          }
          style={
            Object {
              "height": 40,
              "marginLeft": 20,
              "marginRight": 15,
              "width": 40,
            }
          }
        />
        <Component
          style={
            Object {
              "alignItems": "flex-start",
              "flex": 1,
              "flexDirection": "row",
            }
          }
        >
          <Text
            accessible={true}
            allowFontScaling={true}
            ellipsizeMode="tail"
            style={
              Object {
                "color": "#505050",
                "fontFamily": "Lato-Regular",
                "fontSize": 46.875,
              }
            }
          >
            J. Anteri
          </Text>
        </Component>
        <Component
          style={
            Object {
              "alignItems": "center",
              "backgroundColor": "#00CCA8",
              "borderBottomColor": "#CEF4AB",
              "borderBottomWidth": 1,
              "height": 90,
              "justifyContent": "center",
              "width": 70,
            }
          }
        >
          <Icon
            allowFontScaling={false}
            color="white"
            name="speech"
            size={25}
          />
          <Image
            source={
              Object {
                "testUri": "../../../src/images/unread.png",
              }
            }
            style={
              Object {
                "height": 11,
                "left": 40,
                "position": "absolute",
                "top": 27,
                "width": 11,
              }
            }
          />
        </Component>
      </Component>,
      "onPress": [Function],
    },
    "ref": null,
    "rendered": Object {
      "instance": null,
      "key": undefined,
      "nodeType": "class",
      "props": Object {
        "children": Array [
          <Image
            source={
              Object {
                "testUri": "../../../src/images/female_icon.png",
              }
            }
            style={
              Object {
                "height": 40,
                "marginLeft": 20,
                "marginRight": 15,
                "width": 40,
              }
            }
          />,
          <Component
            style={
              Object {
                "alignItems": "flex-start",
                "flex": 1,
                "flexDirection": "row",
              }
            }
          >
            <Text
              accessible={true}
              allowFontScaling={true}
              ellipsizeMode="tail"
              style={
                Object {
                  "color": "#505050",
                  "fontFamily": "Lato-Regular",
                  "fontSize": 46.875,
                }
              }
            >
              J. Anteri
            </Text>
          </Component>,
          <Component
            style={
              Object {
                "alignItems": "center",
                "backgroundColor": "#00CCA8",
                "borderBottomColor": "#CEF4AB",
                "borderBottomWidth": 1,
                "height": 90,
                "justifyContent": "center",
                "width": 70,
              }
            }
          >
            <Icon
              allowFontScaling={false}
              color="white"
              name="speech"
              size={25}
            />
            <Image
              source={
                Object {
                  "testUri": "../../../src/images/unread.png",
                }
              }
              style={
                Object {
                  "height": 11,
                  "left": 40,
                  "position": "absolute",
                  "top": 27,
                  "width": 11,
                }
              }
            />
          </Component>,
        ],
        "style": Object {
          "alignItems": "center",
          "borderBottomColor": "#E6E7E8",
          "borderBottomWidth": 1,
          "flexDirection": "row",
          "height": 90,
          "justifyContent": "space-between",
        },
      },
      "ref": null,
      "rendered": Array [
        Object {
          "instance": null,
          "key": undefined,
          "nodeType": "class",
          "props": Object {
            "source": Object {
              "testUri": "../../../src/images/female_icon.png",
            },
            "style": Object {
              "height": 40,
              "marginLeft": 20,
              "marginRight": 15,
              "width": 40,
            },
          },
          "ref": null,
          "rendered": null,
          "type": [Function],
        },
        Object {
          "instance": null,
          "key": undefined,
          "nodeType": "class",
          "props": Object {
            "children": <Text
              accessible={true}
              allowFontScaling={true}
              ellipsizeMode="tail"
              style={
                Object {
                  "color": "#505050",
                  "fontFamily": "Lato-Regular",
                  "fontSize": 46.875,
                }
              }
            >
              J. Anteri
            </Text>,
            "style": Object {
              "alignItems": "flex-start",
              "flex": 1,
              "flexDirection": "row",
            },
          },
          "ref": null,
          "rendered": Object {
            "instance": null,
            "key": undefined,
            "nodeType": "class",
            "props": Object {
              "accessible": true,
              "allowFontScaling": true,
              "children": "J. Anteri",
              "ellipsizeMode": "tail",
              "style": Object {
                "color": "#505050",
                "fontFamily": "Lato-Regular",
                "fontSize": 46.875,
              },
            },
            "ref": null,
            "rendered": "J. Anteri",
            "type": [Function],
          },
          "type": [Function],
        },
        Object {
          "instance": null,
          "key": undefined,
          "nodeType": "class",
          "props": Object {
            "children": Array [
              <Icon
                allowFontScaling={false}
                color="white"
                name="speech"
                size={25}
              />,
              <Image
                source={
                  Object {
                    "testUri": "../../../src/images/unread.png",
                  }
                }
                style={
                  Object {
                    "height": 11,
                    "left": 40,
                    "position": "absolute",
                    "top": 27,
                    "width": 11,
                  }
                }
              />,
            ],
            "style": Object {
              "alignItems": "center",
              "backgroundColor": "#00CCA8",
              "borderBottomColor": "#CEF4AB",
              "borderBottomWidth": 1,
              "height": 90,
              "justifyContent": "center",
              "width": 70,
            },
          },
          "ref": null,
          "rendered": Array [
            Object {
              "instance": null,
              "key": undefined,
              "nodeType": "class",
              "props": Object {
                "allowFontScaling": false,
                "color": "white",
                "name": "speech",
                "size": 25,
              },
              "ref": null,
              "rendered": null,
              "type": [Function],
            },
            Object {
              "instance": null,
              "key": undefined,
              "nodeType": "class",
              "props": Object {
                "source": Object {
                  "testUri": "../../../src/images/unread.png",
                },
                "style": Object {
                  "height": 11,
                  "left": 40,
                  "position": "absolute",
                  "top": 27,
                  "width": 11,
                },
              },
              "ref": null,
              "rendered": null,
              "type": [Function],
            },
          ],
          "type": [Function],
        },
      ],
      "type": [Function],
    },
    "type": [Function],
  },
  Symbol(enzyme.__nodes__): Array [
    Object {
      "instance": null,
      "key": undefined,
      "nodeType": "class",
      "props": Object {
        "activeOpacity": 0.2,
        "children": <Component
          style={
            Object {
              "alignItems": "center",
              "borderBottomColor": "#E6E7E8",
              "borderBottomWidth": 1,
              "flexDirection": "row",
              "height": 90,
              "justifyContent": "space-between",
            }
          }
        >
          <Image
            source={
              Object {
                "testUri": "../../../src/images/female_icon.png",
              }
            }
            style={
              Object {
                "height": 40,
                "marginLeft": 20,
                "marginRight": 15,
                "width": 40,
              }
            }
          />
          <Component
            style={
              Object {
                "alignItems": "flex-start",
                "flex": 1,
                "flexDirection": "row",
              }
            }
          >
            <Text
              accessible={true}
              allowFontScaling={true}
              ellipsizeMode="tail"
              style={
                Object {
                  "color": "#505050",
                  "fontFamily": "Lato-Regular",
                  "fontSize": 46.875,
                }
              }
            >
              J. Anteri
            </Text>
          </Component>
          <Component
            style={
              Object {
                "alignItems": "center",
                "backgroundColor": "#00CCA8",
                "borderBottomColor": "#CEF4AB",
                "borderBottomWidth": 1,
                "height": 90,
                "justifyContent": "center",
                "width": 70,
              }
            }
          >
            <Icon
              allowFontScaling={false}
              color="white"
              name="speech"
              size={25}
            />
            <Image
              source={
                Object {
                  "testUri": "../../../src/images/unread.png",
                }
              }
              style={
                Object {
                  "height": 11,
                  "left": 40,
                  "position": "absolute",
                  "top": 27,
                  "width": 11,
                }
              }
            />
          </Component>
        </Component>,
        "onPress": [Function],
      },
      "ref": null,
      "rendered": Object {
        "instance": null,
        "key": undefined,
        "nodeType": "class",
        "props": Object {
          "children": Array [
            <Image
              source={
                Object {
                  "testUri": "../../../src/images/female_icon.png",
                }
              }
              style={
                Object {
                  "height": 40,
                  "marginLeft": 20,
                  "marginRight": 15,
                  "width": 40,
                }
              }
            />,
            <Component
              style={
                Object {
                  "alignItems": "flex-start",
                  "flex": 1,
                  "flexDirection": "row",
                }
              }
            >
              <Text
                accessible={true}
                allowFontScaling={true}
                ellipsizeMode="tail"
                style={
                  Object {
                    "color": "#505050",
                    "fontFamily": "Lato-Regular",
                    "fontSize": 46.875,
                  }
                }
              >
                J. Anteri
              </Text>
            </Component>,
            <Component
              style={
                Object {
                  "alignItems": "center",
                  "backgroundColor": "#00CCA8",
                  "borderBottomColor": "#CEF4AB",
                  "borderBottomWidth": 1,
                  "height": 90,
                  "justifyContent": "center",
                  "width": 70,
                }
              }
            >
              <Icon
                allowFontScaling={false}
                color="white"
                name="speech"
                size={25}
              />
              <Image
                source={
                  Object {
                    "testUri": "../../../src/images/unread.png",
                  }
                }
                style={
                  Object {
                    "height": 11,
                    "left": 40,
                    "position": "absolute",
                    "top": 27,
                    "width": 11,
                  }
                }
              />
            </Component>,
          ],
          "style": Object {
            "alignItems": "center",
            "borderBottomColor": "#E6E7E8",
            "borderBottomWidth": 1,
            "flexDirection": "row",
            "height": 90,
            "justifyContent": "space-between",
          },
        },
        "ref": null,
        "rendered": Array [
          Object {
            "instance": null,
            "key": undefined,
            "nodeType": "class",
            "props": Object {
              "source": Object {
                "testUri": "../../../src/images/female_icon.png",
              },
              "style": Object {
                "height": 40,
                "marginLeft": 20,
                "marginRight": 15,
                "width": 40,
              },
            },
            "ref": null,
            "rendered": null,
            "type": [Function],
          },
          Object {
            "instance": null,
            "key": undefined,
            "nodeType": "class",
            "props": Object {
              "children": <Text
                accessible={true}
                allowFontScaling={true}
                ellipsizeMode="tail"
                style={
                  Object {
                    "color": "#505050",
                    "fontFamily": "Lato-Regular",
                    "fontSize": 46.875,
                  }
                }
              >
                J. Anteri
              </Text>,
              "style": Object {
                "alignItems": "flex-start",
                "flex": 1,
                "flexDirection": "row",
              },
            },
            "ref": null,
            "rendered": Object {
              "instance": null,
              "key": undefined,
              "nodeType": "class",
              "props": Object {
                "accessible": true,
                "allowFontScaling": true,
                "children": "J. Anteri",
                "ellipsizeMode": "tail",
                "style": Object {
                  "color": "#505050",
                  "fontFamily": "Lato-Regular",
                  "fontSize": 46.875,
                },
              },
              "ref": null,
              "rendered": "J. Anteri",
              "type": [Function],
            },
            "type": [Function],
          },
          Object {
            "instance": null,
            "key": undefined,
            "nodeType": "class",
            "props": Object {
              "children": Array [
                <Icon
                  allowFontScaling={false}
                  color="white"
                  name="speech"
                  size={25}
                />,
                <Image
                  source={
                    Object {
                      "testUri": "../../../src/images/unread.png",
                    }
                  }
                  style={
                    Object {
                      "height": 11,
                      "left": 40,
                      "position": "absolute",
                      "top": 27,
                      "width": 11,
                    }
                  }
                />,
              ],
              "style": Object {
                "alignItems": "center",
                "backgroundColor": "#00CCA8",
                "borderBottomColor": "#CEF4AB",
                "borderBottomWidth": 1,
                "height": 90,
                "justifyContent": "center",
                "width": 70,
              },
            },
            "ref": null,
            "rendered": Array [
              Object {
                "instance": null,
                "key": undefined,
                "nodeType": "class",
                "props": Object {
                  "allowFontScaling": false,
                  "color": "white",
                  "name": "speech",
                  "size": 25,
                },
                "ref": null,
                "rendered": null,
                "type": [Function],
              },
              Object {
                "instance": null,
                "key": undefined,
                "nodeType": "class",
                "props": Object {
                  "source": Object {
                    "testUri": "../../../src/images/unread.png",
                  },
                  "style": Object {
                    "height": 11,
                    "left": 40,
                    "position": "absolute",
                    "top": 27,
                    "width": 11,
                  },
                },
                "ref": null,
                "rendered": null,
                "type": [Function],
              },
            ],
            "type": [Function],
          },
        ],
        "type": [Function],
      },
      "type": [Function],
    },
  ],
  Symbol(enzyme.__options__): Object {
    "adapter": ReactSixteenAdapter {
      "options": Object {
        "enableComponentDidUpdateOnSetState": true,
      },
    },
  },
}
`;

exports[`ChatListItem renders correctly 2`] = `
ShallowWrapper {
  "length": 1,
  Symbol(enzyme.__root__): [Circular],
  Symbol(enzyme.__unrendered__): <ChatListItem
    buddy={
      Object {
        "displayName": "J. Anteri",
        "id": "qwer",
      }
    }
    goToConversation={[MockFunction]}
    yellowDot={true}
  />,
  Symbol(enzyme.__renderer__): Object {
    "batchedUpdates": [Function],
    "getNode": [Function],
    "render": [Function],
    "simulateEvent": [Function],
    "unmount": [Function],
  },
  Symbol(enzyme.__node__): Object {
    "instance": null,
    "key": undefined,
    "nodeType": "class",
    "props": Object {
      "activeOpacity": 0.2,
      "children": <Component
        style={
          Object {
            "alignItems": "center",
            "borderBottomColor": "#E6E7E8",
            "borderBottomWidth": 1,
            "flexDirection": "row",
            "height": 90,
            "justifyContent": "space-between",
          }
        }
      >
        <Image
          source={
            Object {
              "testUri": "../../../src/images/female_icon.png",
            }
          }
          style={
            Object {
              "height": 40,
              "marginLeft": 20,
              "marginRight": 15,
              "width": 40,
            }
          }
        />
        <Component
          style={
            Object {
              "alignItems": "flex-start",
              "flex": 1,
              "flexDirection": "row",
            }
          }
        >
          <Text
            accessible={true}
            allowFontScaling={true}
            ellipsizeMode="tail"
            style={
              Object {
                "color": "#505050",
                "fontFamily": "Lato-Regular",
                "fontSize": 46.875,
              }
            }
          >
            J. Anteri
          </Text>
        </Component>
        <Component
          style={
            Object {
              "alignItems": "center",
              "backgroundColor": "#00CCA8",
              "borderBottomColor": "#CEF4AB",
              "borderBottomWidth": 1,
              "height": 90,
              "justifyContent": "center",
              "width": 70,
            }
          }
        >
          <Icon
            allowFontScaling={false}
            color="white"
            name="speech"
            size={25}
          />
          <Image
            source={
              Object {
                "testUri": "../../../src/images/unread.png",
              }
            }
            style={
              Object {
                "height": 11,
                "left": 40,
                "position": "absolute",
                "top": 27,
                "width": 11,
              }
            }
          />
        </Component>
      </Component>,
      "onPress": [Function],
    },
    "ref": null,
    "rendered": Object {
      "instance": null,
      "key": undefined,
      "nodeType": "class",
      "props": Object {
        "children": Array [
          <Image
            source={
              Object {
                "testUri": "../../../src/images/female_icon.png",
              }
            }
            style={
              Object {
                "height": 40,
                "marginLeft": 20,
                "marginRight": 15,
                "width": 40,
              }
            }
          />,
          <Component
            style={
              Object {
                "alignItems": "flex-start",
                "flex": 1,
                "flexDirection": "row",
              }
            }
          >
            <Text
              accessible={true}
              allowFontScaling={true}
              ellipsizeMode="tail"
              style={
                Object {
                  "color": "#505050",
                  "fontFamily": "Lato-Regular",
                  "fontSize": 46.875,
                }
              }
            >
              J. Anteri
            </Text>
          </Component>,
          <Component
            style={
              Object {
                "alignItems": "center",
                "backgroundColor": "#00CCA8",
                "borderBottomColor": "#CEF4AB",
                "borderBottomWidth": 1,
                "height": 90,
                "justifyContent": "center",
                "width": 70,
              }
            }
          >
            <Icon
              allowFontScaling={false}
              color="white"
              name="speech"
              size={25}
            />
            <Image
              source={
                Object {
                  "testUri": "../../../src/images/unread.png",
                }
              }
              style={
                Object {
                  "height": 11,
                  "left": 40,
                  "position": "absolute",
                  "top": 27,
                  "width": 11,
                }
              }
            />
          </Component>,
        ],
        "style": Object {
          "alignItems": "center",
          "borderBottomColor": "#E6E7E8",
          "borderBottomWidth": 1,
          "flexDirection": "row",
          "height": 90,
          "justifyContent": "space-between",
        },
      },
      "ref": null,
      "rendered": Array [
        Object {
          "instance": null,
          "key": undefined,
          "nodeType": "class",
          "props": Object {
            "source": Object {
              "testUri": "../../../src/images/female_icon.png",
            },
            "style": Object {
              "height": 40,
              "marginLeft": 20,
              "marginRight": 15,
              "width": 40,
            },
          },
          "ref": null,
          "rendered": null,
          "type": [Function],
        },
        Object {
          "instance": null,
          "key": undefined,
          "nodeType": "class",
          "props": Object {
            "children": <Text
              accessible={true}
              allowFontScaling={true}
              ellipsizeMode="tail"
              style={
                Object {
                  "color": "#505050",
                  "fontFamily": "Lato-Regular",
                  "fontSize": 46.875,
                }
              }
            >
              J. Anteri
            </Text>,
            "style": Object {
              "alignItems": "flex-start",
              "flex": 1,
              "flexDirection": "row",
            },
          },
          "ref": null,
          "rendered": Object {
            "instance": null,
            "key": undefined,
            "nodeType": "class",
            "props": Object {
              "accessible": true,
              "allowFontScaling": true,
              "children": "J. Anteri",
              "ellipsizeMode": "tail",
              "style": Object {
                "color": "#505050",
                "fontFamily": "Lato-Regular",
                "fontSize": 46.875,
              },
            },
            "ref": null,
            "rendered": "J. Anteri",
            "type": [Function],
          },
          "type": [Function],
        },
        Object {
          "instance": null,
          "key": undefined,
          "nodeType": "class",
          "props": Object {
            "children": Array [
              <Icon
                allowFontScaling={false}
                color="white"
                name="speech"
                size={25}
              />,
              <Image
                source={
                  Object {
                    "testUri": "../../../src/images/unread.png",
                  }
                }
                style={
                  Object {
                    "height": 11,
                    "left": 40,
                    "position": "absolute",
                    "top": 27,
                    "width": 11,
                  }
                }
              />,
            ],
            "style": Object {
              "alignItems": "center",
              "backgroundColor": "#00CCA8",
              "borderBottomColor": "#CEF4AB",
              "borderBottomWidth": 1,
              "height": 90,
              "justifyContent": "center",
              "width": 70,
            },
          },
          "ref": null,
          "rendered": Array [
            Object {
              "instance": null,
              "key": undefined,
              "nodeType": "class",
              "props": Object {
                "allowFontScaling": false,
                "color": "white",
                "name": "speech",
                "size": 25,
              },
              "ref": null,
              "rendered": null,
              "type": [Function],
            },
            Object {
              "instance": null,
              "key": undefined,
              "nodeType": "class",
              "props": Object {
                "source": Object {
                  "testUri": "../../../src/images/unread.png",
                },
                "style": Object {
                  "height": 11,
                  "left": 40,
                  "position": "absolute",
                  "top": 27,
                  "width": 11,
                },
              },
              "ref": null,
              "rendered": null,
              "type": [Function],
            },
          ],
          "type": [Function],
        },
      ],
      "type": [Function],
    },
    "type": [Function],
  },
  Symbol(enzyme.__nodes__): Array [
    Object {
      "instance": null,
      "key": undefined,
      "nodeType": "class",
      "props": Object {
        "activeOpacity": 0.2,
        "children": <Component
          style={
            Object {
              "alignItems": "center",
              "borderBottomColor": "#E6E7E8",
              "borderBottomWidth": 1,
              "flexDirection": "row",
              "height": 90,
              "justifyContent": "space-between",
            }
          }
        >
          <Image
            source={
              Object {
                "testUri": "../../../src/images/female_icon.png",
              }
            }
            style={
              Object {
                "height": 40,
                "marginLeft": 20,
                "marginRight": 15,
                "width": 40,
              }
            }
          />
          <Component
            style={
              Object {
                "alignItems": "flex-start",
                "flex": 1,
                "flexDirection": "row",
              }
            }
          >
            <Text
              accessible={true}
              allowFontScaling={true}
              ellipsizeMode="tail"
              style={
                Object {
                  "color": "#505050",
                  "fontFamily": "Lato-Regular",
                  "fontSize": 46.875,
                }
              }
            >
              J. Anteri
            </Text>
          </Component>
          <Component
            style={
              Object {
                "alignItems": "center",
                "backgroundColor": "#00CCA8",
                "borderBottomColor": "#CEF4AB",
                "borderBottomWidth": 1,
                "height": 90,
                "justifyContent": "center",
                "width": 70,
              }
            }
          >
            <Icon
              allowFontScaling={false}
              color="white"
              name="speech"
              size={25}
            />
            <Image
              source={
                Object {
                  "testUri": "../../../src/images/unread.png",
                }
              }
              style={
                Object {
                  "height": 11,
                  "left": 40,
                  "position": "absolute",
                  "top": 27,
                  "width": 11,
                }
              }
            />
          </Component>
        </Component>,
        "onPress": [Function],
      },
      "ref": null,
      "rendered": Object {
        "instance": null,
        "key": undefined,
        "nodeType": "class",
        "props": Object {
          "children": Array [
            <Image
              source={
                Object {
                  "testUri": "../../../src/images/female_icon.png",
                }
              }
              style={
                Object {
                  "height": 40,
                  "marginLeft": 20,
                  "marginRight": 15,
                  "width": 40,
                }
              }
            />,
            <Component
              style={
                Object {
                  "alignItems": "flex-start",
                  "flex": 1,
                  "flexDirection": "row",
                }
              }
            >
              <Text
                accessible={true}
                allowFontScaling={true}
                ellipsizeMode="tail"
                style={
                  Object {
                    "color": "#505050",
                    "fontFamily": "Lato-Regular",
                    "fontSize": 46.875,
                  }
                }
              >
                J. Anteri
              </Text>
            </Component>,
            <Component
              style={
                Object {
                  "alignItems": "center",
                  "backgroundColor": "#00CCA8",
                  "borderBottomColor": "#CEF4AB",
                  "borderBottomWidth": 1,
                  "height": 90,
                  "justifyContent": "center",
                  "width": 70,
                }
              }
            >
              <Icon
                allowFontScaling={false}
                color="white"
                name="speech"
                size={25}
              />
              <Image
                source={
                  Object {
                    "testUri": "../../../src/images/unread.png",
                  }
                }
                style={
                  Object {
                    "height": 11,
                    "left": 40,
                    "position": "absolute",
                    "top": 27,
                    "width": 11,
                  }
                }
              />
            </Component>,
          ],
          "style": Object {
            "alignItems": "center",
            "borderBottomColor": "#E6E7E8",
            "borderBottomWidth": 1,
            "flexDirection": "row",
            "height": 90,
            "justifyContent": "space-between",
          },
        },
        "ref": null,
        "rendered": Array [
          Object {
            "instance": null,
            "key": undefined,
            "nodeType": "class",
            "props": Object {
              "source": Object {
                "testUri": "../../../src/images/female_icon.png",
              },
              "style": Object {
                "height": 40,
                "marginLeft": 20,
                "marginRight": 15,
                "width": 40,
              },
            },
            "ref": null,
            "rendered": null,
            "type": [Function],
          },
          Object {
            "instance": null,
            "key": undefined,
            "nodeType": "class",
            "props": Object {
              "children": <Text
                accessible={true}
                allowFontScaling={true}
                ellipsizeMode="tail"
                style={
                  Object {
                    "color": "#505050",
                    "fontFamily": "Lato-Regular",
                    "fontSize": 46.875,
                  }
                }
              >
                J. Anteri
              </Text>,
              "style": Object {
                "alignItems": "flex-start",
                "flex": 1,
                "flexDirection": "row",
              },
            },
            "ref": null,
            "rendered": Object {
              "instance": null,
              "key": undefined,
              "nodeType": "class",
              "props": Object {
                "accessible": true,
                "allowFontScaling": true,
                "children": "J. Anteri",
                "ellipsizeMode": "tail",
                "style": Object {
                  "color": "#505050",
                  "fontFamily": "Lato-Regular",
                  "fontSize": 46.875,
                },
              },
              "ref": null,
              "rendered": "J. Anteri",
              "type": [Function],
            },
            "type": [Function],
          },
          Object {
            "instance": null,
            "key": undefined,
            "nodeType": "class",
            "props": Object {
              "children": Array [
                <Icon
                  allowFontScaling={false}
                  color="white"
                  name="speech"
                  size={25}
                />,
                <Image
                  source={
                    Object {
                      "testUri": "../../../src/images/unread.png",
                    }
                  }
                  style={
                    Object {
                      "height": 11,
                      "left": 40,
                      "position": "absolute",
                      "top": 27,
                      "width": 11,
                    }
                  }
                />,
              ],
              "style": Object {
                "alignItems": "center",
                "backgroundColor": "#00CCA8",
                "borderBottomColor": "#CEF4AB",
                "borderBottomWidth": 1,
                "height": 90,
                "justifyContent": "center",
                "width": 70,
              },
            },
            "ref": null,
            "rendered": Array [
              Object {
                "instance": null,
                "key": undefined,
                "nodeType": "class",
                "props": Object {
                  "allowFontScaling": false,
                  "color": "white",
                  "name": "speech",
                  "size": 25,
                },
                "ref": null,
                "rendered": null,
                "type": [Function],
              },
              Object {
                "instance": null,
                "key": undefined,
                "nodeType": "class",
                "props": Object {
                  "source": Object {
                    "testUri": "../../../src/images/unread.png",
                  },
                  "style": Object {
                    "height": 11,
                    "left": 40,
                    "position": "absolute",
                    "top": 27,
                    "width": 11,
                  },
                },
                "ref": null,
                "rendered": null,
                "type": [Function],
              },
            ],
            "type": [Function],
          },
        ],
        "type": [Function],
      },
      "type": [Function],
    },
  ],
  Symbol(enzyme.__options__): Object {
    "adapter": ReactSixteenAdapter {
      "options": Object {
        "enableComponentDidUpdateOnSetState": true,
      },
    },
  },
}
`;
