<?xml version="1.0" encoding="UTF-8"?>
<svg width="256px" height="238px" viewBox="0 0 29 27" version="1.1" xmlns="http://www.w3.org/2000/svg" xmlns:xlink="http://www.w3.org/1999/xlink">
    <!-- Generator: Sketch 48.1 (47250) - http://www.bohemiancoding.com/sketch -->
    <title>russian</title>
    <desc>Created with Sketch.</desc>
    <defs>
        <path d="M22.8460781,2.2616998 C21.861691,1.73614651 19.8788138,1.46150401 18.5398749,1.1827821 C17.0055101,0.863379116 15.0683203,0.858824464 13.5047049,0.727140787 C10.5607827,0.47909792 7.15294303,0.695874209 4.2500762,1.38601072 C3.04713582,1.67200842 2.47784224,2.08065702 1.67879307,3.04520877 C0.835627392,4.06312894 0.509795401,5.31323291 0.366461737,6.59772789 C0.20872268,8.01167915 0.22474868,9.45681395 0.239964376,10.8774474 C0.256440545,12.4148855 0.774674571,14.9878848 2.50287161,17.0168647 C3.35296988,18.0150056 4.60389823,18.5724784 5.85500664,18.8998166 C7.3095012,19.2802559 8.84862745,19.5299025 10.3449877,19.6747724 C10.5761042,19.6971354 11.3428524,21.5230589 12.0561894,22.3899616 C13.0204505,23.5619285 14.7647944,24.5684588 16.2449486,24.9297425 C16.8163926,25.0691775 17.6385135,24.6923734 16.7952503,24.1367 C15.9519872,23.5810265 15.4246912,22.8501944 15.2803655,21.8529367 C15.2112629,21.3754538 14.8049083,20.4247937 15.2803655,19.8362702 C16.8368682,20.0353994 18.4271429,19.8060106 19.8232957,18.8998166 C21.0093097,18.1300284 22.3631313,16.9550106 23.3593904,15.1831869 C24.3556494,13.4113631 24.8143226,12.6407538 25.2699606,10.2341218 C25.7255987,7.82748973 25.3901684,6.76244159 25.1083629,5.36648769 C24.838892,4.03120808 24.0340716,2.89595628 22.8460781,2.2616998 Z" id="path-1"></path>
        <path d="M21.6167652,2.25885108 C21.0061544,2.08709287 19.7036073,1.8155297 18.3153696,1.52654545 C16.7245106,1.19538227 14.7232338,1.12464615 13.1020471,0.988113968 C10.0497318,0.730938336 5.86684018,1.17585722 4.7395188,1.54976262 C3.21201815,2.05639786 2.19912961,2.46013462 1.4385654,3.52164163 C0.678001193,4.58314863 0.660195489,7.05708371 0.51158438,8.38887289 C0.34803748,9.85488485 0.302679499,13.7020935 2.09450754,15.8057791 C2.97590584,16.8406708 4.11859068,18.0508935 5.58685361,18.5677771 C7.05511655,19.0846606 10.2192504,19.3739557 11.1772327,19.4777718 C12.1352151,19.581588 14.4884479,19.5949869 15.5762896,19.5912682 C17.2703726,19.3613133 19.9520427,18.6477228 21.6795628,16.6507294 C23.407083,14.6537359 24.6809014,11.4023729 24.8825436,9.9172509 C25.1039347,8.28667527 24.8141993,6.55919636 24.5220179,5.11184442 C24.1794408,4.12825908 23.6628321,2.83438759 21.6167652,2.25885108 Z" id="path-3"></path>
    </defs>
    <g id="Assets" stroke="none" stroke-width="1" fill="none" fill-rule="evenodd" transform="translate(-236.000000, -70.000000)">
        <g id="russian" transform="translate(249.000000, 84.500000) rotate(17.000000) translate(-249.000000, -84.500000) translate(236.000000, 72.000000)">
            <mask id="mask-2" fill="white">
                <use xlink:href="#path-1"></use>
            </mask>
            <g id="Mask" transform="translate(12.862344, 12.793455) scale(-1, 1) translate(-12.862344, -12.793455) ">
                <use fill="#FFFFFF" fill-rule="evenodd" xlink:href="#path-1"></use>
                <path stroke="#FFC952" stroke-width="1.5" d="M15.8047425,20.6382578 C15.8054591,20.6510045 15.8063591,20.6641349 15.8074476,20.6776585 C15.818593,20.8161251 15.8471187,20.9679203 15.9006043,21.1903426 C15.9060987,21.2131914 15.9527948,21.4034329 15.9657061,21.4584287 C15.992132,21.5709905 16.0101844,21.6595004 16.0226325,21.745514 C16.1306646,22.4919908 16.5082711,23.0494003 17.2079265,23.5104426 C17.954056,24.0021092 18.1900346,24.8081455 17.5371442,25.3646662 C17.1664426,25.6806504 16.5711435,25.7813396 16.0671058,25.6583521 C14.3836696,25.2474502 12.5190125,24.1329147 11.4770508,22.86651 C11.4016097,22.7748282 11.3256502,22.6743727 11.248404,22.564867 C11.0653489,22.3053644 10.8792564,22.0021519 10.6659991,21.6255574 C10.5491134,21.419147 10.1494268,20.6865312 10.0710635,20.5495638 C10.0363165,20.488831 10.0053092,20.4361515 9.97806895,20.3914831 C8.46719189,20.2321174 7.00819114,19.9766758 5.66516787,19.6253931 C4.08155841,19.2110598 2.81423145,18.539156 1.93191233,17.5031831 C0.322862313,15.614087 -0.486489194,13.0786503 -0.509992609,10.8854798 C-0.510098544,10.8755896 -0.510098544,10.8755896 -0.510204511,10.865697 C-0.520184773,9.93395869 -0.522243312,9.51060366 -0.515661508,8.98336245 C-0.504137572,8.06022746 -0.463013439,7.26842718 -0.378912003,6.51455345 C-0.196343733,4.87845472 0.23579001,3.61156303 1.10123252,2.56674893 C2.03094034,1.44447593 2.74828717,0.97215401 4.07660399,0.656348203 C7.00227212,-0.0392091614 10.4843144,-0.28000243 13.5676452,-0.0202135622 C13.9392228,0.0110797512 14.2892381,0.0331291843 14.9697618,0.0708878166 C15.5652513,0.103928348 15.706301,0.111992352 15.9826853,0.129695897 C17.1205975,0.202583835 17.9478902,0.293473238 18.692723,0.448522305 C18.723794,0.454973202 18.723794,0.454973202 18.7552616,0.461440578 C19.0438658,0.520612218 20.2226262,0.741762087 20.4581961,0.788348795 C21.7537379,1.04455738 22.5905165,1.27506217 23.1993054,1.60008776 C24.5748902,2.33449713 25.527313,3.65114918 25.8435324,5.21807676 C25.8593705,5.2965326 25.8697623,5.34684088 25.8965137,5.47491571 C25.9536985,5.74569252 25.9834589,5.88720239 26.010408,6.02002013 C26.311533,7.50410317 26.3412249,8.60760989 26.0068699,10.3736379 C25.7260656,11.8568163 25.4338765,12.8014698 24.9675597,13.777205 C24.7484061,14.2357685 24.6119264,14.4858341 24.0131338,15.550773 C23.0681872,17.2313386 21.7687428,18.531243 20.2316234,19.5289179 C18.9238439,20.3777519 17.4126134,20.7328985 15.8047425,20.6382578 Z"></path>
            </g>
            <mask id="mask-4" fill="white">
                <use xlink:href="#path-3"></use>
            </mask>
            <use id="Mask" fill="#FFFFFF" transform="translate(12.699321, 10.251803) scale(-1, 1) translate(-12.699321, -10.251803) " xlink:href="#path-3"></use>
            <g id="Page-1" mask="url(#mask-4)">
                <g transform="translate(-3.000000, 0.000000)">
                    <polygon id="Fill-1" fill="#FFFFFF" points="0 7.527 33.563 7.527 33.563 0.999 0 0.999"></polygon>
                    <polygon id="Fill-2" fill="#066FA5" points="0 14.054 33.563 14.054 33.563 7.527 0 7.527"></polygon>
                    <polygon id="Fill-3" fill="#F25E61" points="0 20.582 33.563 20.582 33.563 14.054 0 14.054"></polygon>
                </g>
            </g>
        </g>
    </g>
</svg>